%YAML 1.1
%TAG !u! tag:unity3d.com,2011:
--- !u!221 &22100000
AnimatorOverrideController:
  m_ObjectHideFlags: 0
  m_CorrespondingSourceObject: {fileID: 0}
  m_PrefabInstance: {fileID: 0}
  m_PrefabAsset: {fileID: 0}
  m_Name: UIRunningFoxAnimatorOverride
  m_Controller: {fileID: 9100000, guid: cfdfe0d8d72f8d14bbf15df08a5e7f90, type: 2}
  m_Clips:
  - m_OriginalClip: {fileID: 7400000, guid: dbb6e047b453c8c4bbefe24659799e06, type: 2}
    m_OverrideClip: {fileID: 7400000, guid: ea30b8c622059324ca3ab3a44b51245f, type: 2}
